{
  "project_info": {
    "project_number": "681980175933",
    "firebase_url": "https://vlatamresto.firebaseio.com",
    "project_id": "vlatamresto",
    "storage_bucket": "vlatamresto.appspot.com"
  },
  "client": [
    {
      "client_info": {
        "mobilesdk_app_id": "1:681980175933:android:3dfd14dbf6f931a3",
        "android_client_info": {
          "package_name": "com.vlatam.vlatmrest"
        }
      },
      "oauth_client": [
        {
          "client_id": "681980175933-cakubgoeq817tnke01s2pkjilgrkb33q.apps.googleusercontent.com",
          "client_type": 1,
          "android_info": {
            "package_name": "com.vlatam.vlatmrest",
            "certificate_hash": "bfb009f70401b63475238bd459d67b0387e2af4e"
          }
        },
        {
          "client_id": "681980175933-pfn9rnn7rkgrcn37bt6876m9hp0cqaqr.apps.googleusercontent.com",
          "client_type": 3
        }
      ],
      "api_key": [
        {
          "current_key": "AIzaSyBDeqb_8hE90dDiTaxcL5qKlmRf0nE3xVM"
        }
      ],
      "services": {
        "analytics_service": {
          "status": 1
        },
        "appinvite_service": {
          "status": 2,
          "other_platform_oauth_client": [
            {
              "client_id": "681980175933-pfn9rnn7rkgrcn37bt6876m9hp0cqaqr.apps.googleusercontent.com",
              "client_type": 3
            }
          ]
        },
        "ads_service": {
          "status": 2
        }
      }
    }
  ],
  "configuration_version": "1"
}